<!DOCTYPE SceneVersion>
<SceneVersion VersionName="Younger_Brother_Skip" ID="1">
 <Element Name="Drawing" ID="1" Folder="Drawing">
  <Drawing Key="Key" Name="1" Version="1"/>
  <Drawing Key="Key" Name="2" Version="1"/>
  <Drawing Key="Key" Name="3" Version="1"/>
  <Drawing Key="Key" Name="4" Version="1"/>
  <Drawing Key="Key" Name="5" Version="1"/>
  <Drawing Key="Key" Name="6" Version="1"/>
  <Drawing Key="Key" Name="7" Version="1"/>
  <Drawing Key="Key" Name="8" Version="1"/>
  <Drawing Key="" Name="9" Version="1"/>
  <Drawing Key="" Name="10" Version="1"/>
  <Drawing Key="" Name="11" Version="1"/>
  <Drawing Key="" Name="12" Version="1"/>
  <Drawing Key="" Name="13" Version="1"/>
  <Drawing Key="" Name="14" Version="1"/>
  <Drawing Key="" Name="15" Version="1"/>
  <Drawing Key="" Name="16" Version="1"/>
 </Element>
 <Element Name="Arms" ID="3" Folder="Arms">
  <Drawing Key="Key" Name="1" Version="1"/>
  <Drawing Key="" Name="2" Version="1"/>
  <Drawing Key="" Name="3" Version="1"/>
  <Drawing Key="" Name="4" Version="1"/>
  <Drawing Key="" Name="5" Version="1"/>
  <Drawing Key="" Name="6" Version="1"/>
  <Drawing Key="" Name="7" Version="1"/>
  <Drawing Key="Key" Name="8" Version="1"/>
  <Drawing Key="" Name="9" Version="1"/>
  <Drawing Key="" Name="10" Version="1"/>
  <Drawing Key="" Name="11" Version="1"/>
  <Drawing Key="" Name="12" Version="1"/>
  <Drawing Key="" Name="13" Version="1"/>
  <Drawing Key="" Name="14" Version="1"/>
  <Drawing Key="" Name="15" Version="1"/>
  <Drawing Key="" Name="16" Version="1"/>
 </Element>
</SceneVersion>
