# This file uses centimeters as units for non-parametric coordinates.

mtllib grass.mtl
g default
v -0.100571 -0.084421 0.202911
v 0.211151 -0.084421 -0.081871
v -0.206749 -0.090301 0.086689
v 0.104972 -0.090301 -0.198094
v -0.134170 1.504739 0.146522
v 0.158020 1.504739 -0.120416
v 0.058494 1.499228 -0.229356
v -0.233695 1.499228 0.037583
v 0.043133 2.782891 0.291568
v 0.286493 2.782891 0.069239
v 0.214724 2.844557 -0.009320
v -0.028637 2.844557 0.213009
v 0.628397 3.536019 0.687840
vt 0.375000 0.250000
vt 0.625000 0.250000
vt 0.375000 0.500000
vt 0.625000 0.500000
vt 0.375000 0.250000
vt 0.625000 0.250000
vt 0.625000 0.500000
vt 0.375000 0.500000
vt 0.375000 0.250000
vt 0.625000 0.250000
vt 0.625000 0.500000
vt 0.375000 0.500000
vt 0.500000 0.375000
vn 0.673934 0.040424 0.737685
vn 0.673934 0.040424 0.737685
vn 0.673934 0.040424 0.737685
vn 0.673934 0.040424 0.737685
vn 0.738053 0.008311 -0.674691
vn 0.738053 0.008311 -0.674691
vn 0.738053 0.008311 -0.674691
vn 0.738053 0.008311 -0.674691
vn -0.674091 -0.034223 -0.737856
vn -0.674091 -0.034223 -0.737856
vn -0.674091 -0.034223 -0.737856
vn -0.674091 -0.034223 -0.737856
vn -0.738472 0.008311 0.674233
vn -0.738472 0.008311 0.674233
vn -0.738472 0.008311 0.674233
vn -0.738472 0.008311 0.674233
vn 0.664123 -0.174620 0.726945
vn 0.664123 -0.174620 0.726945
vn 0.664123 -0.174620 0.726945
vn 0.664123 -0.174620 0.726945
vn 0.741670 0.024194 -0.670329
vn 0.741670 0.024194 -0.670329
vn 0.741670 0.024194 -0.670329
vn 0.741670 0.024194 -0.670329
vn -0.661505 0.195246 -0.724079
vn -0.661505 0.195246 -0.724079
vn -0.661505 0.195246 -0.724079
vn -0.661505 0.195246 -0.724079
vn -0.734453 0.024194 0.678228
vn -0.734453 0.024194 0.678228
vn -0.734453 0.024194 0.678228
vn -0.734453 0.024194 0.678228
vn 0.498204 -0.674097 0.545331
vn 0.498204 -0.674097 0.545331
vn 0.498204 -0.674097 0.545331
vn 0.783588 0.141216 -0.605019
vn 0.783588 0.141216 -0.605019
vn 0.783588 0.141216 -0.605019
vn -0.443046 0.754008 -0.484956
vn -0.443046 0.754008 -0.484956
vn -0.443046 0.754008 -0.484955
vn -0.673188 0.141216 0.725862
vn -0.673188 0.141216 0.725863
vn -0.673188 0.141216 0.725862
s off
g pCube10 Grass
usemtl initialShadingGroup
f 1/1/1 2/2/2 6/6/3 5/5/4
f 2/2/5 4/4/6 7/7/7 6/6/8
f 4/4/9 3/3/10 8/8/11 7/7/12
f 3/3/13 1/1/14 5/5/15 8/8/16
f 5/5/17 6/6/18 10/10/19 9/9/20
f 6/6/21 7/7/22 11/11/23 10/10/24
f 7/7/25 8/8/26 12/12/27 11/11/28
f 8/8/29 5/5/30 9/9/31 12/12/32
f 9/9/33 10/10/34 13/13/35
f 10/10/36 11/11/37 13/13/38
f 11/11/39 12/12/40 13/13/41
f 12/12/42 9/9/43 13/13/44
g default
v -0.078765 -0.087422 -0.211111
v -0.078765 -0.087422 0.211111
v 0.078765 -0.087422 -0.211111
v 0.078765 -0.087422 0.211111
v -0.715481 1.217116 -0.197883
v -0.715481 1.217116 0.197883
v -0.632048 1.338946 0.197883
v -0.632048 1.338946 -0.197883
v -1.954403 1.431198 -0.164814
v -1.954403 1.431198 0.164814
v -1.987921 1.549526 0.164814
v -1.987921 1.549526 -0.164814
v -2.810951 0.898265 0.000000
vt 0.375000 0.250000
vt 0.625000 0.250000
vt 0.375000 0.500000
vt 0.625000 0.500000
vt 0.375000 0.250000
vt 0.625000 0.250000
vt 0.625000 0.500000
vt 0.375000 0.500000
vt 0.375000 0.250000
vt 0.625000 0.250000
vt 0.625000 0.500000
vt 0.375000 0.500000
vt 0.500000 0.375000
vn -0.898672 -0.438621 0.000000
vn -0.898672 -0.438621 0.000000
vn -0.898672 -0.438621 0.000000
vn -0.898672 -0.438621 0.000000
vn -0.003920 0.007753 0.999962
vn -0.003920 0.007753 0.999962
vn -0.003920 0.007753 0.999962
vn -0.003920 0.007753 0.999962
vn 0.895022 0.446023 -0.000000
vn 0.895022 0.446023 -0.000000
vn 0.895021 0.446023 -0.000000
vn 0.895021 0.446023 -0.000000
vn -0.003920 0.007753 -0.999962
vn -0.003920 0.007753 -0.999962
vn -0.003920 0.007753 -0.999962
vn -0.003920 0.007753 -0.999962
vn -0.170274 -0.985397 0.000000
vn -0.170274 -0.985397 0.000000
vn -0.170274 -0.985397 0.000000
vn -0.170274 -0.985397 0.000000
vn -0.024643 0.005122 0.999683
vn -0.024643 0.005122 0.999683
vn -0.024643 0.005122 0.999683
vn -0.024643 0.005122 0.999683
vn 0.153470 0.988153 -0.000000
vn 0.153470 0.988153 -0.000000
vn 0.153470 0.988153 -0.000000
vn 0.153470 0.988153 -0.000000
vn -0.024643 0.005122 -0.999683
vn -0.024643 0.005122 -0.999683
vn -0.024643 0.005122 -0.999683
vn -0.024643 0.005122 -0.999683
vn 0.528280 -0.849070 -0.000000
vn 0.528280 -0.849070 -0.000000
vn 0.528280 -0.849070 -0.000000
vn -0.161271 -0.045682 0.985852
vn -0.161271 -0.045682 0.985852
vn -0.161271 -0.045682 0.985852
vn -0.620525 0.784187 0.000000
vn -0.620525 0.784187 0.000000
vn -0.620525 0.784187 0.000000
vn -0.161271 -0.045682 -0.985852
vn -0.161271 -0.045682 -0.985852
vn -0.161271 -0.045682 -0.985852
s off
g Grass pCube5
usemtl initialShadingGroup
f 14/14/45 15/15/46 19/19/47 18/18/48
f 15/15/49 17/17/50 20/20/51 19/19/52
f 17/17/53 16/16/54 21/21/55 20/20/56
f 16/16/57 14/14/58 18/18/59 21/21/60
f 18/18/61 19/19/62 23/23/63 22/22/64
f 19/19/65 20/20/66 24/24/67 23/23/68
f 20/20/69 21/21/70 25/25/71 24/24/72
f 21/21/73 18/18/74 22/22/75 25/25/76
f 22/22/77 23/23/78 26/26/79
f 23/23/80 24/24/81 26/26/82
f 24/24/83 25/25/84 26/26/85
f 25/25/86 22/22/87 26/26/88
g default
v -0.220821 -0.097022 -0.015467
v 0.171990 -0.097022 0.139359
v -0.163558 -0.076304 -0.160752
v 0.229253 -0.076304 -0.005926
v -0.283423 1.480265 0.179433
v 0.084776 1.480265 0.324558
v 0.138451 1.499685 0.188377
v -0.229747 1.499685 0.043252
v -0.413528 2.701980 0.599709
v -0.106862 2.701980 0.720581
v -0.072209 2.780687 0.632663
v -0.378876 2.780687 0.511791
v -0.555142 3.328588 1.408458
vt 0.375000 0.250000
vt 0.625000 0.250000
vt 0.375000 0.500000
vt 0.625000 0.500000
vt 0.375000 0.250000
vt 0.625000 0.250000
vt 0.625000 0.500000
vt 0.375000 0.500000
vt 0.375000 0.250000
vt 0.625000 0.250000
vt 0.625000 0.500000
vt 0.375000 0.500000
vt 0.500000 0.375000
vn -0.363656 -0.128441 0.922636
vn -0.363656 -0.128441 0.922636
vn -0.363656 -0.128441 0.922636
vn -0.363656 -0.128441 0.922636
vn 0.929909 0.008244 0.367698
vn 0.929909 0.008244 0.367698
vn 0.929909 0.008244 0.367698
vn 0.929909 0.008244 0.367698
vn 0.363356 0.134593 -0.921877
vn 0.363356 0.134593 -0.921877
vn 0.363356 0.134593 -0.921877
vn 0.363356 0.134593 -0.921877
vn -0.930711 0.008244 -0.365663
vn -0.930711 0.008244 -0.365663
vn -0.930711 0.008244 -0.365663
vn -0.930711 0.008244 -0.365663
vn -0.345116 -0.337963 0.875600
vn -0.345116 -0.337963 0.875600
vn -0.345116 -0.337963 0.875600
vn -0.345116 -0.337963 0.875600
vn 0.926629 0.022948 0.375277
vn 0.926629 0.022948 0.375277
vn 0.926629 0.022948 0.375277
vn 0.926629 0.022948 0.375277
vn 0.342440 0.357641 -0.868809
vn 0.342440 0.357641 -0.868809
vn 0.342440 0.357641 -0.868809
vn 0.342440 0.357641 -0.868809
vn -0.933484 0.022948 -0.357883
vn -0.933484 0.022948 -0.357883
vn -0.933484 0.022948 -0.357883
vn -0.933484 0.022948 -0.357883
vn -0.225353 -0.788873 0.571748
vn -0.225353 -0.788873 0.571748
vn -0.225353 -0.788873 0.571748
vn 0.879563 0.125415 0.458955
vn 0.879563 0.125415 0.458955
vn 0.879563 0.125415 0.458955
vn 0.190859 0.853869 -0.484231
vn 0.190859 0.853869 -0.484231
vn 0.190859 0.853870 -0.484231
vn -0.956169 0.125415 -0.264596
vn -0.956169 0.125415 -0.264596
vn -0.956169 0.125415 -0.264596
s off
g Grass pCube4
usemtl initialShadingGroup
f 27/27/89 28/28/90 32/32/91 31/31/92
f 28/28/93 30/30/94 33/33/95 32/32/96
f 30/30/97 29/29/98 34/34/99 33/33/100
f 29/29/101 27/27/102 31/31/103 34/34/104
f 31/31/105 32/32/106 36/36/107 35/35/108
f 32/32/109 33/33/110 37/37/111 36/36/112
f 33/33/113 34/34/114 38/38/115 37/37/116
f 34/34/117 31/31/118 35/35/119 38/38/120
f 35/35/121 36/36/122 39/39/123
f 36/36/124 37/37/125 39/39/126
f 37/37/127 38/38/128 39/39/129
f 38/38/130 35/35/131 39/39/132
g default
v -0.143396 -0.092574 -0.184759
v 0.007740 -0.092574 0.209487
v 0.003357 -0.081866 -0.241017
v 0.154493 -0.081866 0.153228
v -0.456987 1.389547 -0.050375
v -0.315321 1.389547 0.319167
v -0.200768 1.471722 0.275253
v -0.342434 1.471722 -0.094290
v -1.401477 2.146235 0.347116
v -1.283485 2.146235 0.654902
v -1.252433 2.264637 0.642998
v -1.370425 2.264637 0.335212
v -2.285999 2.206663 0.862711
vt 0.375000 0.250000
vt 0.625000 0.250000
vt 0.375000 0.500000
vt 0.625000 0.500000
vt 0.375000 0.250000
vt 0.625000 0.250000
vt 0.625000 0.500000
vt 0.375000 0.500000
vt 0.375000 0.250000
vt 0.625000 0.250000
vt 0.625000 0.500000
vt 0.375000 0.500000
vt 0.500000 0.375000
vn -0.909977 -0.224165 0.348844
vn -0.909977 -0.224165 0.348844
vn -0.909977 -0.224165 0.348844
vn -0.909977 -0.224165 0.348844
vn 0.355436 0.008082 0.934666
vn 0.355436 0.008082 0.934666
vn 0.355436 0.008082 0.934666
vn 0.355436 0.008082 0.934666
vn 0.907619 0.234875 -0.347940
vn 0.907619 0.234875 -0.347940
vn 0.907619 0.234875 -0.347940
vn 0.907619 0.234875 -0.347940
vn -0.360445 0.008082 -0.932745
vn -0.360445 0.008082 -0.932745
vn -0.360445 0.008082 -0.932745
vn -0.360445 0.008082 -0.932745
vn -0.554853 -0.804297 0.212706
vn -0.554853 -0.804297 0.212706
vn -0.554853 -0.804297 0.212706
vn -0.554853 -0.804297 0.212706
vn 0.339371 0.015379 0.940527
vn 0.339371 0.015379 0.940527
vn 0.339371 0.015379 0.940527
vn 0.339371 0.015379 0.940527
vn 0.541582 0.814606 -0.207618
vn 0.541582 0.814606 -0.207618
vn 0.541582 0.814606 -0.207618
vn 0.541582 0.814606 -0.207618
vn -0.376312 0.015379 -0.926366
vn -0.376312 0.015379 -0.926366
vn -0.376312 0.015379 -0.926366
vn -0.376312 0.015379 -0.926366
vn -0.055740 -0.998217 0.021368
vn -0.055740 -0.998217 0.021368
vn -0.055740 -0.998217 0.021368
vn 0.205342 0.044442 0.977681
vn 0.205342 0.044442 0.977681
vn 0.205342 0.044442 0.977681
vn -0.051785 0.998461 0.019852
vn -0.051785 0.998461 0.019852
vn -0.051785 0.998461 0.019852
vn -0.500831 0.044442 -0.864403
vn -0.500831 0.044442 -0.864403
vn -0.500831 0.044442 -0.864403
s off
g Grass pCube6
usemtl initialShadingGroup
f 40/40/133 41/41/134 45/45/135 44/44/136
f 41/41/137 43/43/138 46/46/139 45/45/140
f 43/43/141 42/42/142 47/47/143 46/46/144
f 42/42/145 40/40/146 44/44/147 47/47/148
f 44/44/149 45/45/150 49/49/151 48/48/152
f 45/45/153 46/46/154 50/50/155 49/49/156
f 46/46/157 47/47/158 51/51/159 50/50/160
f 47/47/161 44/44/162 48/48/163 51/51/164
f 48/48/165 49/49/166 52/52/167
f 49/49/168 50/50/169 52/52/170
f 50/50/171 51/51/172 52/52/173
f 51/51/174 48/48/175 52/52/176
g default
v -0.108612 -0.094548 0.180472
v 0.203110 -0.094548 -0.104311
v -0.214378 -0.079496 0.064701
v 0.097344 -0.079496 -0.220082
v 0.158667 1.377573 0.453422
v 0.450857 1.377573 0.186483
v 0.369675 1.463111 0.097622
v 0.077485 1.463111 0.364560
v 0.887740 2.105634 1.202432
v 1.131100 2.105634 0.980103
v 1.110888 2.224912 0.957978
v 0.867528 2.224912 1.180307
v 1.691836 2.138082 1.838236
vt 0.375000 0.250000
vt 0.625000 0.250000
vt 0.375000 0.500000
vt 0.625000 0.500000
vt 0.375000 0.250000
vt 0.625000 0.250000
vt 0.625000 0.500000
vt 0.375000 0.500000
vt 0.375000 0.250000
vt 0.625000 0.250000
vt 0.625000 0.500000
vt 0.375000 0.500000
vt 0.500000 0.375000
vn 0.652886 -0.251042 0.714645
vn 0.652886 -0.251042 0.714645
vn 0.652886 -0.251042 0.714645
vn 0.652886 -0.251042 0.714645
vn 0.740221 0.008004 -0.672317
vn 0.740221 0.008004 -0.672317
vn 0.740221 0.008004 -0.672317
vn 0.740220 0.008004 -0.672317
vn -0.650983 0.261678 -0.712563
vn -0.650983 0.261678 -0.712563
vn -0.650983 0.261678 -0.712562
vn -0.650983 0.261678 -0.712562
vn -0.736302 0.008004 0.676606
vn -0.736302 0.008004 0.676606
vn -0.736302 0.008004 0.676606
vn -0.736302 0.008004 0.676606
vn 0.385635 -0.820430 0.422114
vn 0.385635 -0.820430 0.422114
vn 0.385635 -0.820430 0.422114
vn 0.385635 -0.820430 0.422114
vn 0.751680 0.014825 -0.659361
vn 0.751680 0.014825 -0.659361
vn 0.751680 0.014825 -0.659361
vn 0.751680 0.014825 -0.659361
vn -0.375860 0.830342 -0.411414
vn -0.375860 0.830342 -0.411414
vn -0.375860 0.830342 -0.411414
vn -0.375860 0.830342 -0.411414
vn -0.724432 0.014825 0.689186
vn -0.724432 0.014825 0.689186
vn -0.724432 0.014825 0.689186
vn -0.724432 0.014825 0.689186
vn 0.021620 -0.999486 0.023666
vn 0.021620 -0.999486 0.023666
vn 0.021620 -0.999486 0.023666
vn 0.835760 0.040047 -0.547632
vn 0.835760 0.040047 -0.547632
vn 0.835760 0.040047 -0.547632
vn 0.056025 0.996544 0.061325
vn 0.056025 0.996544 0.061325
vn 0.056025 0.996544 0.061325
vn -0.620737 0.040047 0.782996
vn -0.620737 0.040047 0.782996
vn -0.620737 0.040047 0.782996
s off
g Grass pCube9
usemtl initialShadingGroup
f 53/53/177 54/54/178 58/58/179 57/57/180
f 54/54/181 56/56/182 59/59/183 58/58/184
f 56/56/185 55/55/186 60/60/187 59/59/188
f 55/55/189 53/53/190 57/57/191 60/60/192
f 57/57/193 58/58/194 62/62/195 61/61/196
f 58/58/197 59/59/198 63/63/199 62/62/200
f 59/59/201 60/60/202 64/64/203 63/63/204
f 60/60/205 57/57/206 61/61/207 64/64/208
f 61/61/209 62/62/210 65/65/211
f 62/62/212 63/63/213 65/65/214
f 63/63/215 64/64/216 65/65/217
f 64/64/218 61/61/219 65/65/220
g default
v -0.068656 -0.095567 -0.211111
v -0.068656 -0.095567 0.211111
v 0.087916 -0.078214 -0.211111
v 0.087916 -0.078214 0.211111
v -0.238947 1.485751 -0.197883
v -0.238947 1.485751 0.197883
v -0.092185 1.502017 0.197883
v -0.092185 1.502017 -0.197883
v -0.651264 2.716624 -0.164814
v -0.651264 2.716624 0.164814
v -0.555092 2.793279 0.164814
v -0.555092 2.793279 -0.164814
v -1.441936 3.360395 0.000000
vt 0.375000 0.250000
vt 0.625000 0.250000
vt 0.375000 0.500000
vt 0.625000 0.500000
vt 0.375000 0.250000
vt 0.625000 0.250000
vt 0.625000 0.500000
vt 0.375000 0.500000
vt 0.375000 0.250000
vt 0.625000 0.250000
vt 0.625000 0.500000
vt 0.375000 0.500000
vt 0.500000 0.375000
vn -0.994251 -0.107070 0.000000
vn -0.994251 -0.107070 0.000000
vn -0.994251 -0.107070 0.000000
vn -0.994251 -0.107070 0.000000
vn -0.000916 0.008266 0.999965
vn -0.000916 0.008266 0.999965
vn -0.000916 0.008266 0.999965
vn -0.000916 0.008266 0.999965
vn 0.993568 0.113238 -0.000000
vn 0.993568 0.113238 -0.000000
vn 0.993568 0.113238 -0.000000
vn 0.993568 0.113238 -0.000000
vn -0.000916 0.008266 -0.999965
vn -0.000916 0.008266 -0.999965
vn -0.000916 0.008266 -0.999965
vn -0.000916 0.008266 -0.999965
vn -0.948214 -0.317632 0.000000
vn -0.948214 -0.317632 0.000000
vn -0.948214 -0.317632 0.000000
vn -0.948214 -0.317632 0.000000
vn -0.008852 0.023143 0.999693
vn -0.008852 0.023143 0.999693
vn -0.008852 0.023143 0.999693
vn -0.008852 0.023143 0.999693
vn 0.941339 0.337462 -0.000000
vn 0.941339 0.337462 -0.000000
vn 0.941339 0.337462 -0.000000
vn 0.941339 0.337462 -0.000000
vn -0.008852 0.023143 -0.999693
vn -0.008852 0.023143 -0.999693
vn -0.008852 0.023143 -0.999693
vn -0.008852 0.023143 -0.999693
vn -0.631390 -0.775466 0.000000
vn -0.631390 -0.775466 0.000000
vn -0.631390 -0.775466 0.000000
vn -0.101732 0.127634 0.986590
vn -0.101732 0.127634 0.986590
vn -0.101732 0.127634 0.986590
vn 0.538741 0.842471 -0.000000
vn 0.538741 0.842471 -0.000000
vn 0.538741 0.842471 -0.000000
vn -0.101732 0.127634 -0.986590
vn -0.101732 0.127634 -0.986590
vn -0.101732 0.127634 -0.986590
s off
g Grass pCube7
usemtl initialShadingGroup
f 66/66/221 67/67/222 71/71/223 70/70/224
f 67/67/225 69/69/226 72/72/227 71/71/228
f 69/69/229 68/68/230 73/73/231 72/72/232
f 68/68/233 66/66/234 70/70/235 73/73/236
f 70/70/237 71/71/238 75/75/239 74/74/240
f 71/71/241 72/72/242 76/76/243 75/75/244
f 72/72/245 73/73/246 77/77/247 76/76/248
f 73/73/249 70/70/250 74/74/251 77/77/252
f 74/74/253 75/75/254 78/78/255
f 75/75/256 76/76/257 78/78/258
f 76/76/259 77/77/260 78/78/261
f 77/77/262 74/74/263 78/78/264
g default
v -0.098197 -0.092887 0.200360
v 0.200360 -0.092887 -0.098197
v -0.209296 -0.081500 0.089260
v 0.089260 -0.081500 -0.209296
v 0.426882 1.162215 0.706732
v 0.706732 1.162215 0.426882
v 0.654117 1.289757 0.374268
v 0.374268 1.289757 0.654117
v 1.334967 1.286183 1.568049
v 1.568049 1.286183 1.334967
v 1.597736 1.401779 1.364654
v 1.364654 1.401779 1.597736
v 2.028355 0.692730 2.028355
vt 0.375000 0.250000
vt 0.625000 0.250000
vt 0.375000 0.500000
vt 0.625000 0.500000
vt 0.375000 0.250000
vt 0.625000 0.250000
vt 0.625000 0.500000
vt 0.375000 0.500000
vt 0.375000 0.250000
vt 0.625000 0.250000
vt 0.625000 0.500000
vt 0.375000 0.500000
vt 0.500000 0.375000
vn 0.611376 -0.502433 0.611376
vn 0.611376 -0.502433 0.611376
vn 0.611376 -0.502433 0.611376
vn 0.611376 -0.502433 0.611376
vn 0.710241 0.007449 -0.703919
vn 0.710241 0.007449 -0.703919
vn 0.710241 0.007449 -0.703919
vn 0.710241 0.007449 -0.703919
vn -0.608423 0.509552 -0.608423
vn -0.608423 0.509552 -0.608423
vn -0.608423 0.509552 -0.608423
vn -0.608423 0.509552 -0.608423
vn -0.703919 0.007449 0.710241
vn -0.703919 0.007449 0.710241
vn -0.703919 0.007449 0.710241
vn -0.703919 0.007449 0.710241
vn 0.069721 -0.995127 0.069721
vn 0.069721 -0.995127 0.069721
vn 0.069721 -0.995127 0.069721
vn 0.069721 -0.995127 0.069721
vn 0.724524 0.003327 -0.689242
vn 0.724524 0.003327 -0.689242
vn 0.724524 0.003327 -0.689242
vn 0.724524 0.003327 -0.689242
vn -0.057729 0.996662 -0.057729
vn -0.057729 0.996662 -0.057729
vn -0.057729 0.996662 -0.057729
vn -0.057729 0.996662 -0.057729
vn -0.689242 0.003327 0.724524
vn -0.689242 0.003327 0.724524
vn -0.689242 0.003327 0.724524
vn -0.689242 0.003327 0.724524
vn -0.415971 -0.808663 -0.415971
vn -0.415971 -0.808663 -0.415971
vn -0.415971 -0.808663 -0.415971
vn 0.808506 -0.057220 -0.585700
vn 0.808506 -0.057220 -0.585700
vn 0.808506 -0.057220 -0.585700
vn 0.477711 0.737282 0.477711
vn 0.477711 0.737282 0.477711
vn 0.477711 0.737282 0.477711
vn -0.585700 -0.057220 0.808506
vn -0.585700 -0.057220 0.808506
vn -0.585700 -0.057220 0.808506
s off
g Grass pCube8
usemtl initialShadingGroup
f 79/79/265 80/80/266 84/84/267 83/83/268
f 80/80/269 82/82/270 85/85/271 84/84/272
f 82/82/273 81/81/274 86/86/275 85/85/276
f 81/81/277 79/79/278 83/83/279 86/86/280
f 83/83/281 84/84/282 88/88/283 87/87/284
f 84/84/285 85/85/286 89/89/287 88/88/288
f 85/85/289 86/86/290 90/90/291 89/89/292
f 86/86/293 83/83/294 87/87/295 90/90/296
f 87/87/297 88/88/298 91/91/299
f 88/88/300 89/89/301 91/91/302
f 89/89/303 90/90/304 91/91/305
f 90/90/306 87/87/307 91/91/308
g default
v 0.066686 -0.096952 0.211111
v 0.066686 -0.096952 -0.211111
v -0.089498 -0.076398 0.211111
v -0.089498 -0.076398 -0.211111
v 0.269306 1.480549 0.197883
v 0.269306 1.480549 -0.197883
v 0.122908 1.499815 -0.197883
v 0.122908 1.499815 0.197883
v 0.706728 2.702725 0.164814
v 0.706728 2.702725 -0.164814
v 0.612145 2.781333 -0.164814
v 0.612145 2.781333 0.164814
v 1.510411 3.330179 0.000000
vt 0.375000 0.250000
vt 0.625000 0.250000
vt 0.375000 0.500000
vt 0.625000 0.500000
vt 0.375000 0.250000
vt 0.625000 0.250000
vt 0.625000 0.500000
vt 0.375000 0.500000
vt 0.375000 0.250000
vt 0.625000 0.250000
vt 0.625000 0.500000
vt 0.375000 0.500000
vt 0.500000 0.375000
vn 0.991852 -0.127397 0.000000
vn 0.991852 -0.127397 0.000000
vn 0.991852 -0.127397 0.000000
vn 0.991852 -0.127397 0.000000
vn 0.001085 0.008246 -0.999965
vn 0.001085 0.008246 -0.999965
vn 0.001085 0.008246 -0.999965
vn 0.001085 0.008246 -0.999965
vn -0.991042 0.133550 -0.000000
vn -0.991042 0.133550 -0.000000
vn -0.991042 0.133550 -0.000000
vn -0.991042 0.133550 -0.000000
vn 0.001085 0.008246 0.999965
vn 0.001085 0.008246 0.999965
vn 0.001085 0.008246 0.999965
vn 0.001085 0.008246 0.999965
vn 0.941514 -0.336973 0.000000
vn 0.941514 -0.336973 0.000000
vn 0.941514 -0.336973 0.000000
vn 0.941514 -0.336973 0.000000
vn 0.009324 0.022957 -0.999693
vn 0.009324 0.022957 -0.999693
vn 0.009324 0.022957 -0.999693
vn 0.009324 0.022957 -0.999693
vn -0.934235 0.356658 -0.000000
vn -0.934235 0.356658 -0.000000
vn -0.934235 0.356658 -0.000000
vn -0.934235 0.356658 -0.000000
vn 0.009324 0.022957 0.999693
vn 0.009324 0.022957 0.999693
vn 0.009324 0.022957 0.999693
vn 0.009324 0.022957 0.999693
vn 0.615386 -0.788226 0.000000
vn 0.615386 -0.788226 0.000000
vn 0.615386 -0.788226 0.000000
vn 0.104323 0.125525 -0.986590
vn 0.104323 0.125525 -0.986590
vn 0.104323 0.125525 -0.986590
vn -0.521385 0.853321 -0.000000
vn -0.521385 0.853321 -0.000000
vn -0.521385 0.853321 -0.000000
vn 0.104323 0.125525 0.986590
vn 0.104323 0.125525 0.986590
vn 0.104323 0.125525 0.986590
s off
g Grass pCube13
usemtl initialShadingGroup
f 92/92/309 93/93/310 97/97/311 96/96/312
f 93/93/313 95/95/314 98/98/315 97/97/316
f 95/95/317 94/94/318 99/99/319 98/98/320
f 94/94/321 92/92/322 96/96/323 99/99/324
f 96/96/325 97/97/326 101/101/327 100/100/328
f 97/97/329 98/98/330 102/102/331 101/101/332
f 98/98/333 99/99/334 103/103/335 102/102/336
f 99/99/337 96/96/338 100/100/339 103/103/340
f 100/100/341 101/101/342 104/104/343
f 101/101/344 102/102/345 104/104/346
f 102/102/347 103/103/348 104/104/349
f 103/103/350 100/100/351 104/104/352
g default
v 0.083993 -0.082413 0.197473
v 0.083993 -0.082413 -0.224749
v -0.073240 -0.092101 0.197473
v -0.073240 -0.092101 -0.224749
v 0.230558 1.431332 0.184245
v 0.230558 1.431332 -0.211521
v 0.098288 1.496968 -0.211521
v 0.098288 1.496968 0.184245
v 1.148399 2.314005 0.151176
v 1.148399 2.314005 -0.178452
v 1.100124 2.427118 -0.178452
v 1.100124 2.427118 0.151176
v 2.142595 2.504481 -0.013638
vt 0.375000 0.250000
vt 0.625000 0.250000
vt 0.375000 0.500000
vt 0.625000 0.500000
vt 0.375000 0.250000
vt 0.625000 0.250000
vt 0.625000 0.500000
vt 0.375000 0.500000
vt 0.375000 0.250000
vt 0.625000 0.250000
vt 0.625000 0.500000
vt 0.375000 0.500000
vt 0.500000 0.375000
vn 0.995345 -0.096372 0.000000
vn 0.995345 -0.096372 0.000000
vn 0.995345 -0.096372 0.000000
vn 0.995345 -0.096372 0.000000
vn 0.001616 0.008360 -0.999964
vn 0.001616 0.008360 -0.999964
vn 0.001616 0.008360 -0.999964
vn 0.001616 0.008360 -0.999964
vn -0.994225 0.107319 -0.000000
vn -0.994225 0.107319 -0.000000
vn -0.994225 0.107319 -0.000000
vn -0.994225 0.107319 -0.000000
vn 0.001616 0.008360 0.999964
vn 0.001616 0.008360 0.999964
vn 0.001616 0.008360 0.999964
vn 0.001616 0.008360 0.999964
vn 0.693163 -0.720781 0.000000
vn 0.693163 -0.720781 0.000000
vn 0.693163 -0.720781 0.000000
vn 0.693163 -0.720781 0.000000
vn 0.017628 0.017805 -0.999686
vn 0.017628 0.017805 -0.999686
vn 0.017628 0.017805 -0.999686
vn 0.017628 0.017805 -0.999686
vn -0.680401 0.732840 -0.000000
vn -0.680401 0.732840 -0.000000
vn -0.680401 0.732840 -0.000000
vn -0.680401 0.732840 -0.000000
vn 0.017628 0.017805 0.999686
vn 0.017628 0.017805 0.999686
vn 0.017628 0.017805 0.999686
vn 0.017628 0.017805 0.999686
vn 0.188167 -0.982137 0.000000
vn 0.188167 -0.982137 0.000000
vn 0.188167 -0.982137 0.000000
vn 0.151161 0.064513 -0.986402
vn 0.151161 0.064513 -0.986402
vn 0.151161 0.064513 -0.986402
vn -0.074008 0.997258 -0.000000
vn -0.074008 0.997258 -0.000000
vn -0.074008 0.997258 -0.000000
vn 0.151161 0.064513 0.986402
vn 0.151161 0.064513 0.986402
vn 0.151161 0.064513 0.986402
s off
g Grass pCube12
usemtl initialShadingGroup
f 105/105/353 106/106/354 110/110/355 109/109/356
f 106/106/357 108/108/358 111/111/359 110/110/360
f 108/108/361 107/107/362 112/112/363 111/111/364
f 107/107/365 105/105/366 109/109/367 112/112/368
f 109/109/369 110/110/370 114/114/371 113/113/372
f 110/110/373 111/111/374 115/115/375 114/114/376
f 111/111/377 112/112/378 116/116/379 115/115/380
f 112/112/381 109/109/382 113/113/383 116/116/384
f 113/113/385 114/114/386 117/117/387
f 114/114/388 115/115/389 117/117/390
f 115/115/391 116/116/392 117/117/393
f 116/116/394 113/113/395 117/117/396
g default
v 0.078765 -0.087422 0.211111
v 0.078765 -0.087422 -0.211111
v -0.078765 -0.087422 0.211111
v -0.078765 -0.087422 -0.211111
v 0.715481 1.217116 0.197883
v 0.715481 1.217116 -0.197883
v 0.632048 1.338946 -0.197883
v 0.632048 1.338946 0.197883
v 1.954403 1.431198 0.164814
v 1.954403 1.431198 -0.164814
v 1.987921 1.549526 -0.164814
v 1.987921 1.549526 0.164814
v 2.810951 0.898265 0.000000
vt 0.375000 0.250000
vt 0.625000 0.250000
vt 0.375000 0.500000
vt 0.625000 0.500000
vt 0.375000 0.250000
vt 0.625000 0.250000
vt 0.625000 0.500000
vt 0.375000 0.500000
vt 0.375000 0.250000
vt 0.625000 0.250000
vt 0.625000 0.500000
vt 0.375000 0.500000
vt 0.500000 0.375000
vn 0.898672 -0.438621 0.000000
vn 0.898672 -0.438621 0.000000
vn 0.898672 -0.438621 0.000000
vn 0.898672 -0.438621 0.000000
vn 0.003920 0.007753 -0.999962
vn 0.003920 0.007753 -0.999962
vn 0.003920 0.007753 -0.999962
vn 0.003920 0.007753 -0.999962
vn -0.895022 0.446023 -0.000000
vn -0.895022 0.446023 -0.000000
vn -0.895021 0.446023 -0.000000
vn -0.895021 0.446023 -0.000000
vn 0.003920 0.007753 0.999962
vn 0.003920 0.007753 0.999962
vn 0.003920 0.007753 0.999962
vn 0.003920 0.007753 0.999962
vn 0.170274 -0.985397 0.000000
vn 0.170274 -0.985397 0.000000
vn 0.170274 -0.985397 0.000000
vn 0.170274 -0.985397 0.000000
vn 0.024643 0.005122 -0.999683
vn 0.024643 0.005122 -0.999683
vn 0.024643 0.005122 -0.999683
vn 0.024643 0.005122 -0.999683
vn -0.153470 0.988153 -0.000000
vn -0.153470 0.988153 -0.000000
vn -0.153470 0.988153 -0.000000
vn -0.153470 0.988153 -0.000000
vn 0.024643 0.005122 0.999683
vn 0.024643 0.005122 0.999683
vn 0.024643 0.005122 0.999683
vn 0.024643 0.005122 0.999683
vn -0.528280 -0.849070 -0.000000
vn -0.528280 -0.849070 -0.000000
vn -0.528280 -0.849070 -0.000000
vn 0.161271 -0.045682 -0.985852
vn 0.161271 -0.045682 -0.985852
vn 0.161271 -0.045682 -0.985852
vn 0.620525 0.784187 0.000000
vn 0.620525 0.784187 0.000000
vn 0.620525 0.784187 0.000000
vn 0.161271 -0.045682 0.985852
vn 0.161271 -0.045682 0.985852
vn 0.161271 -0.045682 0.985852
s off
g Grass pCube11
usemtl initialShadingGroup
f 118/118/397 119/119/398 123/123/399 122/122/400
f 119/119/401 121/121/402 124/124/403 123/123/404
f 121/121/405 120/120/406 125/125/407 124/124/408
f 120/120/409 118/118/410 122/122/411 125/125/412
f 122/122/413 123/123/414 127/127/415 126/126/416
f 123/123/417 124/124/418 128/128/419 127/127/420
f 124/124/421 125/125/422 129/129/423 128/128/424
f 125/125/425 122/122/426 126/126/427 129/129/428
f 126/126/429 127/127/430 130/130/431
f 127/127/432 128/128/433 130/130/434
f 128/128/435 129/129/436 130/130/437
f 129/129/438 126/126/439 130/130/440
g default
v -0.211111 -0.080726 0.071977
v 0.211111 -0.080726 0.071977
v -0.211111 -0.093539 -0.085032
v 0.211111 -0.093539 -0.085032
v -0.197883 1.435635 0.188404
v 0.197883 1.435635 0.188404
v 0.197883 1.498627 0.054854
v -0.197883 1.498627 0.054854
v -0.164814 2.336390 1.088507
v 0.164814 2.336390 1.088507
v 0.164814 2.448520 1.037992
v -0.164814 2.448520 1.037992
v 0.000000 2.546604 2.078717
vt 0.375000 0.250000
vt 0.625000 0.250000
vt 0.375000 0.500000
vt 0.625000 0.500000
vt 0.375000 0.250000
vt 0.625000 0.250000
vt 0.625000 0.500000
vt 0.375000 0.500000
vt 0.375000 0.250000
vt 0.625000 0.250000
vt 0.625000 0.500000
vt 0.375000 0.500000
vt 0.500000 0.375000
vn 0.000000 -0.076555 0.997065
vn 0.000000 -0.076555 0.997065
vn 0.000000 -0.076555 0.997065
vn 0.000000 -0.076555 0.997065
vn 0.999964 0.008391 0.001449
vn 0.999964 0.008391 0.001449
vn 0.999964 0.008391 0.001449
vn 0.999964 0.008391 0.001449
vn 0.000000 0.087522 -0.996163
vn 0.000000 0.087522 -0.996163
vn 0.000000 0.087522 -0.996163
vn 0.000000 0.087522 -0.996163
vn -0.999964 0.008391 0.001449
vn -0.999964 0.008391 0.001449
vn -0.999964 0.008391 0.001449
vn -0.999964 0.008391 0.001449
vn 0.000000 -0.706851 0.707363
vn 0.000000 -0.706851 0.707363
vn 0.000000 -0.706851 0.707363
vn 0.000000 -0.706851 0.707363
vn 0.999686 0.018152 0.017270
vn 0.999686 0.018152 0.017270
vn 0.999686 0.018152 0.017270
vn 0.999686 0.018152 0.017270
vn 0.000000 0.719161 -0.694843
vn 0.000000 0.719161 -0.694843
vn 0.000000 0.719161 -0.694843
vn 0.000000 0.719161 -0.694843
vn -0.999686 0.018152 0.017270
vn -0.999686 0.018152 0.017270
vn -0.999686 0.018152 0.017270
vn -0.999686 0.018152 0.017270
vn 0.000000 -0.978200 0.207665
vn 0.000000 -0.978200 0.207665
vn 0.000000 -0.978200 0.207665
vn 0.986402 0.067507 0.149848
vn 0.986402 0.067507 0.149848
vn 0.986402 0.067507 0.149848
vn 0.000000 0.995588 -0.093829
vn 0.000000 0.995588 -0.093829
vn 0.000000 0.995588 -0.093829
vn -0.986402 0.067507 0.149848
vn -0.986402 0.067507 0.149848
vn -0.986402 0.067507 0.149848
s off
g Grass pCube3
usemtl initialShadingGroup
f 131/131/441 132/132/442 136/136/443 135/135/444
f 132/132/445 134/134/446 137/137/447 136/136/448
f 134/134/449 133/133/450 138/138/451 137/137/452
f 133/133/453 131/131/454 135/135/455 138/138/456
f 135/135/457 136/136/458 140/140/459 139/139/460
f 136/136/461 137/137/462 141/141/463 140/140/464
f 137/137/465 138/138/466 142/142/467 141/141/468
f 138/138/469 135/135/470 139/139/471 142/142/472
f 139/139/473 140/140/474 143/143/475
f 140/140/476 141/141/477 143/143/478
f 141/141/479 142/142/480 143/143/481
f 142/142/482 139/139/483 143/143/484
g default
v -0.211111 -0.087422 0.078766
v 0.211111 -0.087422 0.078766
v -0.211111 -0.087422 -0.078765
v 0.211111 -0.087422 -0.078765
v -0.197883 1.217116 0.715481
v 0.197883 1.217116 0.715481
v 0.197883 1.338946 0.632048
v -0.197883 1.338946 0.632048
v -0.164814 1.431198 1.954403
v 0.164814 1.431198 1.954403
v 0.164814 1.549526 1.987921
v -0.164814 1.549526 1.987921
v 0.000000 0.898265 2.810951
vt 0.375000 0.250000
vt 0.625000 0.250000
vt 0.375000 0.500000
vt 0.625000 0.500000
vt 0.375000 0.250000
vt 0.625000 0.250000
vt 0.625000 0.500000
vt 0.375000 0.500000
vt 0.375000 0.250000
vt 0.625000 0.250000
vt 0.625000 0.500000
vt 0.375000 0.500000
vt 0.500000 0.375000
vn 0.000000 -0.438621 0.898672
vn 0.000000 -0.438621 0.898672
vn 0.000000 -0.438621 0.898672
vn 0.000000 -0.438621 0.898672
vn 0.999962 0.007753 0.003920
vn 0.999962 0.007753 0.003920
vn 0.999962 0.007753 0.003920
vn 0.999962 0.007753 0.003920
vn 0.000000 0.446023 -0.895022
vn 0.000000 0.446023 -0.895022
vn 0.000000 0.446023 -0.895021
vn 0.000000 0.446023 -0.895021
vn -0.999962 0.007753 0.003920
vn -0.999962 0.007753 0.003920
vn -0.999962 0.007753 0.003920
vn -0.999962 0.007753 0.003920
vn 0.000000 -0.985397 0.170274
vn 0.000000 -0.985397 0.170274
vn 0.000000 -0.985397 0.170274
vn 0.000000 -0.985397 0.170274
vn 0.999683 0.005122 0.024643
vn 0.999683 0.005122 0.024643
vn 0.999683 0.005122 0.024643
vn 0.999683 0.005122 0.024643
vn 0.000000 0.988153 -0.153470
vn 0.000000 0.988153 -0.153470
vn 0.000000 0.988153 -0.153470
vn 0.000000 0.988153 -0.153470
vn -0.999683 0.005122 0.024643
vn -0.999683 0.005122 0.024643
vn -0.999683 0.005122 0.024643
vn -0.999683 0.005122 0.024643
vn 0.000000 -0.849070 -0.528280
vn 0.000000 -0.849070 -0.528280
vn 0.000000 -0.849070 -0.528280
vn 0.985852 -0.045682 0.161272
vn 0.985852 -0.045682 0.161271
vn 0.985852 -0.045682 0.161272
vn 0.000000 0.784187 0.620525
vn 0.000000 0.784187 0.620525
vn 0.000000 0.784187 0.620525
vn -0.985852 -0.045682 0.161271
vn -0.985852 -0.045682 0.161272
vn -0.985852 -0.045682 0.161272
s off
g Grass pCube1
usemtl initialShadingGroup
f 144/144/485 145/145/486 149/149/487 148/148/488
f 145/145/489 147/147/490 150/150/491 149/149/492
f 147/147/493 146/146/494 151/151/495 150/150/496
f 146/146/497 144/144/498 148/148/499 151/151/500
f 148/148/501 149/149/502 153/153/503 152/152/504
f 149/149/505 150/150/506 154/154/507 153/153/508
f 150/150/509 151/151/510 155/155/511 154/154/512
f 151/151/513 148/148/514 152/152/515 155/155/516
f 152/152/517 153/153/518 156/156/519
f 153/153/520 154/154/521 156/156/522
f 154/154/523 155/155/524 156/156/525
f 155/155/526 152/152/527 156/156/528
g default
v -0.197766 -0.095627 -0.100791
v 0.100791 -0.095627 0.197766
v -0.087063 -0.078136 -0.211493
v 0.211493 -0.078136 0.087063
v -0.738275 1.130149 0.458426
v -0.458426 1.130149 0.738275
v -0.409360 1.260490 0.689209
v -0.689209 1.260490 0.409360
v -1.602333 1.205348 1.369251
v -1.369251 1.205348 1.602333
v -1.402095 1.319223 1.635177
v -1.635177 1.319223 1.402095
v -2.045877 0.580606 2.045877
vt 0.375000 0.250000
vt 0.625000 0.250000
vt 0.375000 0.500000
vt 0.625000 0.500000
vt 0.375000 0.250000
vt 0.625000 0.250000
vt 0.625000 0.500000
vt 0.375000 0.500000
vt 0.375000 0.250000
vt 0.625000 0.250000
vt 0.625000 0.500000
vt 0.375000 0.500000
vt 0.500000 0.375000
vn -0.597091 -0.535690 0.597091
vn -0.597091 -0.535690 0.597091
vn -0.597091 -0.535690 0.597091
vn -0.597091 -0.535690 0.597091
vn 0.703717 0.007270 0.710443
vn 0.703717 0.007270 0.710443
vn 0.703717 0.007270 0.710443
vn 0.703717 0.007270 0.710443
vn 0.593945 0.542641 -0.593945
vn 0.593945 0.542641 -0.593945
vn 0.593945 0.542641 -0.593945
vn 0.593945 0.542641 -0.593945
vn -0.710443 0.007270 -0.703717
vn -0.710443 0.007270 -0.703717
vn -0.710443 0.007270 -0.703717
vn -0.710443 0.007270 -0.703717
vn -0.042292 -0.998210 0.042292
vn -0.042292 -0.998210 0.042292
vn -0.042292 -0.998210 0.042292
vn -0.042292 -0.998210 0.042292
vn 0.689163 0.002354 0.724602
vn 0.689163 0.002354 0.724602
vn 0.689163 0.002354 0.724602
vn 0.689163 0.002354 0.724602
vn 0.030267 0.999083 -0.030267
vn 0.030267 0.999083 -0.030267
vn 0.030267 0.999083 -0.030267
vn 0.030267 0.999083 -0.030267
vn -0.724602 0.002354 -0.689163
vn -0.724602 0.002354 -0.689163
vn -0.724602 0.002354 -0.689163
vn -0.724602 0.002354 -0.689163
vn 0.437903 -0.785164 -0.437903
vn 0.437903 -0.785164 -0.437903
vn 0.437903 -0.785164 -0.437903
vn 0.587358 -0.063306 0.806847
vn 0.587358 -0.063306 0.806847
vn 0.587358 -0.063306 0.806847
vn -0.497632 0.710440 0.497632
vn -0.497632 0.710440 0.497632
vn -0.497632 0.710440 0.497632
vn -0.806847 -0.063306 -0.587358
vn -0.806847 -0.063306 -0.587358
vn -0.806847 -0.063306 -0.587358
s off
g Grass pCube14
usemtl initialShadingGroup
f 157/157/529 158/158/530 162/162/531 161/161/532
f 158/158/533 160/160/534 163/163/535 162/162/536
f 160/160/537 159/159/538 164/164/539 163/163/540
f 159/159/541 157/157/542 161/161/543 164/164/544
f 161/161/545 162/162/546 166/166/547 165/165/548
f 162/162/549 163/163/550 167/167/551 166/166/552
f 163/163/553 164/164/554 168/168/555 167/167/556
f 164/164/557 161/161/558 165/165/559 168/168/560
f 165/165/561 166/166/562 169/169/563
f 166/166/564 167/167/565 169/169/566
f 167/167/567 168/168/568 169/169/569
f 168/168/570 165/165/571 169/169/572
